slide time
1      0
2      0.5
3      1
4      1
5      1
6      1
7      1
8      1
9         1
10        0.5
11        0.5
12        1
13        1
14        0.5
15        0.5
16        0.5
17        0.5
18        0.5
19        1
20        1
21        0.5
22        1
23        0.5
24        1.5
25        0.5
26        0.5
27        0.5
28        1
29        0.5
30        0.5
31        0.5
32        0.5
33        1
34        0
